<?xml version="1.0" encoding="UTF-8" standalone="no"?>
<svg
   xmlns:dc="http://purl.org/dc/elements/1.1/"
   xmlns:cc="http://creativecommons.org/ns#"
   xmlns:rdf="http://www.w3.org/1999/02/22-rdf-syntax-ns#"
   xmlns:svg="http://www.w3.org/2000/svg"
   xmlns="http://www.w3.org/2000/svg"
   xmlns:sodipodi="http://sodipodi.sourceforge.net/DTD/sodipodi-0.dtd"
   xmlns:inkscape="http://www.inkscape.org/namespaces/inkscape"
   width="182"
   height="94"
   viewBox="0 0 182 94"
   fill="none"
   version="1.1"
   id="svg12"
   sodipodi:docname="custody.svg"
   inkscape:version="0.92.5 (2060ec1f9f, 2020-04-08)">
  <metadata
     id="metadata18">
    <rdf:RDF>
      <cc:Work
         rdf:about="">
        <dc:format>image/svg+xml</dc:format>
        <dc:type
           rdf:resource="http://purl.org/dc/dcmitype/StillImage" />
      </cc:Work>
    </rdf:RDF>
  </metadata>
  <defs
     id="defs16" />
  <sodipodi:namedview
     pagecolor="#ffffff"
     bordercolor="#666666"
     borderopacity="1"
     objecttolerance="10"
     gridtolerance="10"
     guidetolerance="10"
     inkscape:pageopacity="0"
     inkscape:pageshadow="2"
     inkscape:window-width="640"
     inkscape:window-height="480"
     id="namedview14"
     showgrid="false"
     inkscape:zoom="1.9065934"
     inkscape:cx="91"
     inkscape:cy="47"
     inkscape:window-x="488"
     inkscape:window-y="788"
     inkscape:window-maximized="0"
     inkscape:current-layer="svg12" />
  <path
     d="m 155.373,50.2835 c 0.349,0.3673 0.683,0.7293 1.029,1.0793 0.678,0.6896 1.361,1.3723 2.043,2.0568 0.546,0.5499 1.149,0.5051 1.577,-0.1345 1.255,-1.8758 2.498,-3.7601 3.756,-5.6359 0.281,-0.4207 0.303,-0.8189 0.02,-1.2413 -1.252,-1.8775 -2.505,-3.755 -3.747,-5.6394 -0.254,-0.3861 -0.593,-0.5379 -1.039,-0.5379 -6.443,0.0035 -12.887,0 -19.332,0.0087 -0.288,0 -0.434,-0.0759 -0.572,-0.3431 -1.365,-2.6464 -3.331,-4.7291 -5.892,-6.2428 -1.504,-0.8896 -3.113,-1.5154 -4.824,-1.8361 -1.556,-0.2896 -3.12,-0.381 -4.71,-0.1845 -2.197,0.2707 -4.242,0.9362 -6.138,2.0706 -3,1.7982 -5.147,4.3343 -6.457,7.5841 -0.594,1.4723 -0.929,3.0033 -1.043,4.5911 -0.285,3.9722 0.807,7.5324 3.217,10.665 2.263,2.9412 5.262,4.7842 8.863,5.6065 1.26,0.288 2.552,0.4311 3.85,0.3604 3.237,-0.1759 6.183,-1.1879 8.776,-3.1671 1.87,-1.4275 3.347,-3.1895 4.396,-5.3032 0.098,-0.1965 0.218,-0.25 0.426,-0.2482 1.345,0.0086 2.688,0 4.032,0.0069 0.366,0 0.661,-0.1242 0.919,-0.3845 1.018,-1.031 2.044,-2.0551 3.084,-3.1015 0.093,0.0844 0.177,0.1568 0.256,0.2361 0.952,0.9534 1.901,1.9086 2.851,2.8637 0.522,0.5241 1.011,0.5206 1.539,-0.0104 0.949,-0.9551 1.899,-1.9085 2.849,-2.8636 0.072,-0.0724 0.147,-0.1396 0.269,-0.2534 z m -32.842,-3.2808 c 0.034,2.1447 -1.719,3.8308 -3.721,3.8929 -2.302,0.0707 -3.95,-1.7879 -4.009,-3.7498 -0.065,-2.2758 1.766,-3.9757 3.778,-4.017 2.181,-0.0449 3.983,1.7412 3.95,3.8739 z m 25.574,-2.8981 c 3.031,0 6.064,0 9.095,0 0.622,0 1.041,0.3982 1.037,0.9809 -0.003,0.569 -0.417,0.9586 -1.023,0.9586 -6.074,0 -12.15,0 -18.224,0 -0.112,0 -0.23,-0.0069 -0.335,-0.0414 -0.481,-0.1568 -0.759,-0.6068 -0.684,-1.093 0.074,-0.4724 0.483,-0.8034 1.005,-0.8034 3.043,0 6.086,0 9.129,0 z"
     id="path2"
     inkscape:connector-curvature="0"
     style="fill:#7e88fe" />
  <circle
     cx="134.5"
     cy="47.028301"
     r="43.5"
     id="circle4"
     style="stroke:#7e88fe;stroke-width:6" />
  <g
     id="g22"
     transform="translate(-16)">
    <path
       id="path6"
       d="m 45.5,27.5774 c 0.6188,-0.3573 1.3812,-0.3573 2,0 l 15.7535,9.0952 c 0.6188,0.3573 1,1.0176 1,1.7321 v 18.1906 c 0,0.7145 -0.3812,1.3748 -1,1.7321 L 47.5,67.4226 c -0.6188,0.3573 -1.3812,0.3573 -2,0 L 29.7465,58.3274 c -0.6188,-0.3573 -1,-1.0176 -1,-1.7321 V 38.4047 c 0,-0.7145 0.3812,-1.3748 1,-1.7321 z"
       inkscape:connector-curvature="0"
       style="fill:#7e88fe" />
    <path
       id="path8"
       d="m 53.2346,46.2456 -6.7338,9.7896 c -0.3192,0.4734 -1.0488,0.2291 -1.0336,-0.336 l 0.1064,-5.7424 c 0,-0.3207 -0.2432,-0.5804 -0.5624,-0.5804 h -4.773 c -0.456,0 -0.7296,-0.5192 -0.4712,-0.901 l 6.7338,-9.7896 c 0.3192,-0.4735 1.0488,-0.2291 1.0336,0.336 l -0.1064,5.7424 c 0,0.3207 0.2432,0.5803 0.5624,0.5803 h 4.7729 c 0.4561,0.0153 0.7297,0.5346 0.4713,0.9011 z"
       inkscape:connector-curvature="0"
       style="fill:#ffffff" />
  </g>
  <path
     d="m 46.902017,48 h 44.67147"
     id="path10"
     inkscape:connector-curvature="0"
     style="stroke:#7e88fe;stroke-width:4.17525673" />
</svg>
