<svg width="114" height="115" viewBox="0 0 114 115" fill="none" xmlns="http://www.w3.org/2000/svg">
<path fill-rule="evenodd" clip-rule="evenodd" d="M44.802 77.5245H22.8C21.2325 77.5245 19.95 76.2436 19.95 74.6781V67.5051C19.95 64.1178 21.1469 60.8444 23.37 58.2541L37.0499 42.3141V34.8279C36.936 21.0511 43.8044 8.38446 55.4609 0.983715C56.4014 0.385962 57.5985 0.385962 58.539 0.983715C70.167 8.41293 77.0639 21.0511 76.95 34.8564V42.3141L90.6299 58.2541C92.8244 60.8159 94.0499 64.1178 94.0499 67.5051V74.6781C94.0499 76.2436 92.7674 77.5245 91.2 77.5245H69.198L71.1644 85.3807C71.3924 86.2347 71.193 87.1455 70.6515 87.8287C70.11 88.5118 69.2834 88.9103 68.3999 88.9103H45.5999C44.7164 88.9103 43.8899 88.5118 43.3484 87.8287C42.8354 87.1455 42.6359 86.2347 42.8354 85.3807L44.802 77.5245ZM42.75 37.3897V43.3672V71.8317H54.1499V46.726C54.1499 45.1605 55.4324 43.8796 57 43.8796C58.5675 43.8796 59.8499 45.1605 59.8499 46.726V71.8317H71.2499V37.3897H42.75ZM49.248 83.2174H64.7519L63.3269 77.5245H50.673L49.248 83.2174ZM88.3499 67.5051C88.3499 65.4841 87.6375 63.4916 86.298 61.9545V61.926L76.95 51.0526V71.8317H88.3499V67.5051ZM71.1075 32.2661C70.452 22.0474 65.3504 12.768 57 6.81892C48.6494 12.768 43.548 22.0474 42.8925 32.2661H71.1075ZM27.702 61.9545C26.391 63.4916 25.65 65.4556 25.65 67.5051V67.5335V71.8601H37.0499V51.0811L27.702 61.9545ZM45.6001 94.6032C44.0326 94.6032 42.7501 95.8841 42.7501 97.4496V100.296C37.4491 100.296 33.0316 103.94 31.7491 108.835H19.9501C18.3826 108.835 17.1001 110.116 17.1001 111.682C17.1001 113.247 18.3826 114.528 19.9501 114.528H34.2001C35.7676 114.528 37.0501 113.247 37.0501 111.682C37.0501 108.551 39.6151 105.989 42.7501 105.989C42.7501 107.555 44.0326 108.835 45.6001 108.835C47.1676 108.835 48.4501 107.555 48.4501 105.989V97.4496C48.4501 95.8841 47.1676 94.6032 45.6001 94.6032ZM2.85 108.835H5.7C7.2675 108.835 8.55 110.116 8.55 111.682C8.55 113.247 7.2675 114.528 5.7 114.528H2.85C1.2825 114.528 0 113.247 0 111.682C0 110.116 1.2825 108.835 2.85 108.835ZM105.45 108.835H111.15C112.718 108.835 114 110.116 114 111.682C114 113.247 112.718 114.528 111.15 114.528H105.45C103.883 114.528 102.6 113.247 102.6 111.682C102.6 110.116 103.883 108.835 105.45 108.835ZM82.2511 108.835H94.05C95.6176 108.835 96.9 110.116 96.9 111.682C96.9 113.247 95.6176 114.528 94.05 114.528H79.8C78.2326 114.528 76.9501 113.247 76.9501 111.682C76.9501 108.551 74.385 105.989 71.25 105.989C71.25 107.555 69.9676 108.835 68.4 108.835C66.8326 108.835 65.55 107.555 65.55 105.989V97.4496C65.55 95.8841 66.8326 94.6032 68.4 94.6032C69.9676 94.6032 71.25 95.8841 71.25 97.4496V100.296C76.551 100.296 80.9686 103.94 82.2511 108.835ZM56.9999 94.6032C55.4324 94.6032 54.1499 95.8841 54.1499 97.4496V105.989C54.1499 107.555 55.4324 108.835 56.9999 108.835C58.5674 108.835 59.8499 107.555 59.8499 105.989V97.4496C59.8499 95.8841 58.5674 94.6032 56.9999 94.6032Z" fill="#7e88fe"/>
</svg>
